{
  "": {
    "a": 1,
    "c": 2,
    "g": 1,
    "^": 1
  },
  "children": [
    {
      "c": {
        "a": 1,
        "c": 1,
        "g": 2,
        "^": 1
      },
      "children": [
        {
          "cc": {
            "a": 1,
            "g": 2,
            "^": 1
          },
          "children": [
            {
              "acc": {
                "a": 1,
                "g": 1,
                "^": 1
              },
              "children": [
                {
                  "cacc": {
                    "g": 1,
                    "^": 1
                  },
                  "children": [
                    {
                      "acacc": {
                        "g": 1,
                        "^": 1
                      },
                      "children": []
                    }
                  ]
                },
                {
                  "aacc": {
                    "^": 1
                  },
                  "children": []
                }
              ]
            }
          ]
        },
        {
          "ac": {
            "c": 1,
            "^": 1
          },
          "children": [
            {
              "cac": {
                "c": 1,
                "^": 1
              },
              "children": []
            }
          ]
        }
      ]
    },
    {
      "a": {
        "c": 1,
        "^": 1
      },
      "children": [
        {
          "ca": {
            "c": 1,
            "^": 1
          },
          "children": []
        },
        {
          "ga": {
            "c": 1,
            "^": 1
          },
          "children": []
        }
      ]
    },
    {
      "g": {
        "a": 1,
        "^": 1
      },
      "children": [
        {
          "gg": {
            "a": 1,
            "^": 1
          },
          "children": [
            {
              "cgg": {
                "a": 1,
                "^": 1
              },
              "children": []
            }
          ]
        }
      ]
    }
  ]
}
